Grades analysis
…
WE can see that we have a concentration of student in the lower grades out of 20.

Question 5

# A tibble: 24 × 2
   Group  `n()`
   <chr>  <int>
 1 grp_1     29
 2 grp_10    23
 3 grp_11    25
 4 grp_12    33
 5 grp_13    29
 6 grp_14    32
 7 grp_15    34
 8 grp_16    33
 9 grp_17    35
10 grp_18    36
# ℹ 14 more rows
…
Question 10

# A tibble: 21,870 × 4
      Id Group  name  value
   <dbl> <chr>  <chr> <dbl>
 1   561 grp_16 Exam  10   
 2   561 grp_16 MCQ_1 15   
 3   561 grp_16 MCQ_2 18.5 
 4   561 grp_16 MCQ_3 12.7 
 5   561 grp_16 MCQ_4  8.24
 6   561 grp_16 MCQ_5 13.8 
 7   561 grp_16 MCQ_6 20   
 8   561 grp_16 MCQ_7 20   
 9   561 grp_16 MCQ_8 20   
10   561 grp_16 MCQ_9 20   
# ℹ 21,860 more rows

Question 11

# A tibble: 729 × 2
      Id missing_grades_by_student
   <dbl>                     <int>
 1     1                        10
 2     2                        15
 3     3                         6
 4     4                         0
 5     5                        19
 6     6                         1
 7     7                        11
 8     8                         4
 9     9                         6
10    10                         3
# ℹ 719 more rows
…
grp_6
3

grp_7
4

grp_8
2

grp_9
5

Question 14

# A tibble: 729 × 2
      Id online_exam_na
   <dbl>          <int>
 1     1              9
 2     2             14
 3     3              4
 4     4              0
 5     5             19
 6     6              1
 7     7             10
 8     8              3
 9     9              6
10    10              3
# ℹ 719 more rows
…
We can assume that there is a corelation between online missed tests and the final grade during the exam.In fact, the more online tests a student misses, the lower the grade will become (decreasing column trend)

Question 16

# A tibble: 729 × 2
      Id Missed
   <dbl> <lgl> 
 1     1 TRUE  
 2     2 TRUE  
 3     3 TRUE  
 4     4 FALSE 
 5     5 FALSE 
 6     6 FALSE 
 7     7 TRUE  
 8     8 TRUE  
 9     9 FALSE 
10    10 FALSE 
# ℹ 719 more rows

Question 17

# A tibble: 24 × 2
   Group  P_missed
   <chr>     <dbl>
 1 grp_1      44.8
 2 grp_10     43.5
 3 grp_11     24  
 4 grp_12    100  
 5 grp_13     10.3
 6 grp_14     40.6
 7 grp_15     44.1
 8 grp_16     21.2
 9 grp_17     25.7
10 grp_18     97.2
# ℹ 14 more rows
…
